{
  "currentPage": 1,
  "currentResult": 0,
  "entityOrField": false,
  "items": [
    {
      "cd_id": "330102",
      "cdbh": "330102",
      "cdjylx": "教学类,活动类,计算机机房类",
      "cdlb_id": "02",
      "cdlbmc": "多媒体教室",
      "cdmc": "330102",
      "cdxqxx_id": "B3CD4867DDAC69BEE05399C226CA9A73",
      "date": "二○二一年五月二十九日",
      "dateDigit": "2021年5月29日",
      "dateDigitSeparator": "2021-5-29",
      "day": "29",
      "jgpxzd": "1",
      "jxlmc": "33",
      "kszws1": "84",
      "lch": "1",
      "lh": "33",
      "listnav": "false",
      "localeKey": "zh_CN",
      "month": "5",
      "pageable": true,
      "queryModel": {
        "currentPage": 1,
        "currentResult": 0,
        "entityOrField": false,
        "limit": 15,
        "offset": 0,
        "pageNo": 0,
        "pageSize": 15,
        "showCount": 10,
        "sorts": [],
        "totalCount": 0,
        "totalPage": 0,
        "totalResult": 0
      },
      "rangeable": true,
      "row_id": "1",
      "sydx_id": "20",
      "sydxmc": "教务处",
      "totalResult": "72",
      "userModel": {
        "monitor": false,
        "roleCount": 0,
        "roleKeys": "",
        "roleValues": "",
        "status": 0,
        "usable": false
      },
      "xqh_id": "1",
      "xqmc": "五山校区",
      "year": "2021",
      "zws": "196"
    },
    {
      "cd_id": "330201",
      "cdbh": "330201",
      "cdjylx": "教学类,活动类,计算机机房类",
      "cdlb_id": "02",
      "cdlbmc": "多媒体教室",
      "cdmc": "330201",
      "cdxqxx_id": "B3CD4867DE0069BEE05399C226CA9A73",
      "date": "二○二一年五月二十九日",
      "dateDigit": "2021年5月29日",
      "dateDigitSeparator": "2021-5-29",
      "day": "29",
      "jgpxzd": "1",
      "jxlmc": "33",
      "kszws1": "48",
      "lch": "2",
      "lh": "33",
      "listnav": "false",
      "localeKey": "zh_CN",
      "month": "5",
      "pageable": true,
      "queryModel": {
        "currentPage": 1,
        "currentResult": 0,
        "entityOrField": false,
        "limit": 15,
        "offset": 0,
        "pageNo": 0,
        "pageSize": 15,
        "showCount": 10,
        "sorts": [],
        "totalCount": 0,
        "totalPage": 0,
        "totalResult": 0
      },
      "rangeable": true,
      "row_id": "2",
      "sydx_id": "20",
      "sydxmc": "教务处",
      "totalResult": "72",
      "userModel": {
        "monitor": false,
        "roleCount": 0,
        "roleKeys": "",
        "roleValues": "",
        "status": 0,
        "usable": false
      },
      "xqh_id": "1",
      "xqmc": "五山校区",
      "year": "2021",
      "zws": "118"
    },
    {
      "cd_id": "330202",
      "cdbh": "330202",
      "cdjylx": "教学类,活动类,计算机机房类",
      "cdlb_id": "02",
      "cdlbmc": "多媒体教室",
      "cdmc": "330202",
      "cdxqxx_id": "B3CD4867DCBC69BEE05399C226CA9A73",
      "date": "二○二一年五月二十九日",
      "dateDigit": "2021年5月29日",
      "dateDigitSeparator": "2021-5-29",
      "day": "29",
      "jgpxzd": "1",
      "jxlmc": "33",
      "kszws1": "48",
      "lch": "2",
      "lh": "33",
      "listnav": "false",
      "localeKey": "zh_CN",
      "month": "5",
      "pageable": true,
      "queryModel": {
        "currentPage": 1,
        "currentResult": 0,
        "entityOrField": false,
        "limit": 15,
        "offset": 0,
        "pageNo": 0,
        "pageSize": 15,
        "showCount": 10,
        "sorts": [],
        "totalCount": 0,
        "totalPage": 0,
        "totalResult": 0
      },
      "rangeable": true,
      "row_id": "3",
      "sydx_id": "20",
      "sydxmc": "教务处",
      "totalResult": "72",
      "userModel": {
        "monitor": false,
        "roleCount": 0,
        "roleKeys": "",
        "roleValues": "",
        "status": 0,
        "usable": false
      },
      "xqh_id": "1",
      "xqmc": "五山校区",
      "year": "2021",
      "zws": "118"
    },
    {
      "cd_id": "330403",
      "cdbh": "330403",
      "cdjylx": "教学类,活动类,计算机机房类",
      "cdlb_id": "02",
      "cdlbmc": "多媒体教室",
      "cdmc": "330403",
      "cdxqxx_id": "B3CD4867DD2169BEE05399C226CA9A73",
      "date": "二○二一年五月二十九日",
      "dateDigit": "2021年5月29日",
      "dateDigitSeparator": "2021-5-29",
      "day": "29",
      "jgpxzd": "1",
      "jxlmc": "33",
      "kszws1": "78",
      "lch": "4",
      "lh": "33",
      "listnav": "false",
      "localeKey": "zh_CN",
      "month": "5",
      "pageable": true,
      "queryModel": {
        "currentPage": 1,
        "currentResult": 0,
        "entityOrField": false,
        "limit": 15,
        "offset": 0,
        "pageNo": 0,
        "pageSize": 15,
        "showCount": 10,
        "sorts": [],
        "totalCount": 0,
        "totalPage": 0,
        "totalResult": 0
      },
      "rangeable": true,
      "row_id": "4",
      "sydx_id": "20",
      "sydxmc": "教务处",
      "totalResult": "72",
      "userModel": {
        "monitor": false,
        "roleCount": 0,
        "roleKeys": "",
        "roleValues": "",
        "status": 0,
        "usable": false
      },
      "xqh_id": "1",
      "xqmc": "五山校区",
      "year": "2021",
      "zws": "182"
    },
    {
      "cd_id": "330404",
      "cdbh": "330404",
      "cdjylx": "教学类,活动类,计算机机房类",
      "cdlb_id": "02",
      "cdlbmc": "多媒体教室",
      "cdmc": "330404",
      "cdxqxx_id": "B3CD4867DD4269BEE05399C226CA9A73",
      "date": "二○二一年五月二十九日",
      "dateDigit": "2021年5月29日",
      "dateDigitSeparator": "2021-5-29",
      "day": "29",
      "jgpxzd": "1",
      "jxlmc": "33",
      "kszws1": "84",
      "lch": "4",
      "lh": "33",
      "listnav": "false",
      "localeKey": "zh_CN",
      "month": "5",
      "pageable": true,
      "queryModel": {
        "currentPage": 1,
        "currentResult": 0,
        "entityOrField": false,
        "limit": 15,
        "offset": 0,
        "pageNo": 0,
        "pageSize": 15,
        "showCount": 10,
        "sorts": [],
        "totalCount": 0,
        "totalPage": 0,
        "totalResult": 0
      },
      "rangeable": true,
      "row_id": "5",
      "sydx_id": "20",
      "sydxmc": "教务处",
      "totalResult": "72",
      "userModel": {
        "monitor": false,
        "roleCount": 0,
        "roleKeys": "",
        "roleValues": "",
        "status": 0,
        "usable": false
      },
      "xqh_id": "1",
      "xqmc": "五山校区",
      "year": "2021",
      "zws": "196"
    },
    {
      "cd_id": "330501",
      "cdbh": "330501",
      "cdjylx": "教学类,活动类,计算机机房类",
      "cdlb_id": "02",
      "cdlbmc": "多媒体教室",
      "cdmc": "330501",
      "cdxqxx_id": "B3CD4867DD2269BEE05399C226CA9A73",
      "date": "二○二一年五月二十九日",
      "dateDigit": "2021年5月29日",
      "dateDigitSeparator": "2021-5-29",
      "day": "29",
      "jgpxzd": "1",
      "jxlmc": "33",
      "kszws1": "48",
      "lch": "5",
      "lh": "33",
      "listnav": "false",
      "localeKey": "zh_CN",
      "month": "5",
      "pageable": true,
      "queryModel": {
        "currentPage": 1,
        "currentResult": 0,
        "entityOrField": false,
        "limit": 15,
        "offset": 0,
        "pageNo": 0,
        "pageSize": 15,
        "showCount": 10,
        "sorts": [],
        "totalCount": 0,
        "totalPage": 0,
        "totalResult": 0
      },
      "rangeable": true,
      "row_id": "6",
      "sydx_id": "20",
      "sydxmc": "教务处",
      "totalResult": "72",
      "userModel": {
        "monitor": false,
        "roleCount": 0,
        "roleKeys": "",
        "roleValues": "",
        "status": 0,
        "usable": false
      },
      "xqh_id": "1",
      "xqmc": "五山校区",
      "year": "2021",
      "zws": "118"
    },
    {
      "cd_id": "330502",
      "cdbh": "330502",
      "cdjylx": "教学类,活动类,计算机机房类",
      "cdlb_id": "02",
      "cdlbmc": "多媒体教室",
      "cdmc": "330502",
      "cdxqxx_id": "B3CD4867DCBF69BEE05399C226CA9A73",
      "date": "二○二一年五月二十九日",
      "dateDigit": "2021年5月29日",
      "dateDigitSeparator": "2021-5-29",
      "day": "29",
      "jgpxzd": "1",
      "jxlmc": "33",
      "kszws1": "48",
      "lch": "5",
      "lh": "33",
      "listnav": "false",
      "localeKey": "zh_CN",
      "month": "5",
      "pageable": true,
      "queryModel": {
        "currentPage": 1,
        "currentResult": 0,
        "entityOrField": false,
        "limit": 15,
        "offset": 0,
        "pageNo": 0,
        "pageSize": 15,
        "showCount": 10,
        "sorts": [],
        "totalCount": 0,
        "totalPage": 0,
        "totalResult": 0
      },
      "rangeable": true,
      "row_id": "7",
      "sydx_id": "20",
      "sydxmc": "教务处",
      "totalResult": "72",
      "userModel": {
        "monitor": false,
        "roleCount": 0,
        "roleKeys": "",
        "roleValues": "",
        "status": 0,
        "usable": false
      },
      "xqh_id": "1",
      "xqmc": "五山校区",
      "year": "2021",
      "zws": "118"
    },
    {
      "cd_id": "330503",
      "cdbh": "330503",
      "cdjylx": "教学类,活动类,计算机机房类",
      "cdlb_id": "02",
      "cdlbmc": "多媒体教室",
      "cdmc": "330503",
      "cdxqxx_id": "B3CD4867DD2369BEE05399C226CA9A73",
      "date": "二○二一年五月二十九日",
      "dateDigit": "2021年5月29日",
      "dateDigitSeparator": "2021-5-29",
      "day": "29",
      "jgpxzd": "1",
      "jxlmc": "33",
      "kszws1": "78",
      "lch": "5",
      "lh": "33",
      "listnav": "false",
      "localeKey": "zh_CN",
      "month": "5",
      "pageable": true,
      "queryModel": {
        "currentPage": 1,
        "currentResult": 0,
        "entityOrField": false,
        "limit": 15,
        "offset": 0,
        "pageNo": 0,
        "pageSize": 15,
        "showCount": 10,
        "sorts": [],
        "totalCount": 0,
        "totalPage": 0,
        "totalResult": 0
      },
      "rangeable": true,
      "row_id": "8",
      "sydx_id": "20",
      "sydxmc": "教务处",
      "totalResult": "72",
      "userModel": {
        "monitor": false,
        "roleCount": 0,
        "roleKeys": "",
        "roleValues": "",
        "status": 0,
        "usable": false
      },
      "xqh_id": "1",
      "xqmc": "五山校区",
      "year": "2021",
      "zws": "182"
    },
    {
      "cd_id": "330504",
      "cdbh": "330504",
      "cdjylx": "教学类,活动类,计算机机房类",
      "cdlb_id": "02",
      "cdlbmc": "多媒体教室",
      "cdmc": "330504",
      "cdxqxx_id": "B3CD4867DDAE69BEE05399C226CA9A73",
      "date": "二○二一年五月二十九日",
      "dateDigit": "2021年5月29日",
      "dateDigitSeparator": "2021-5-29",
      "day": "29",
      "jgpxzd": "1",
      "jxlmc": "33",
      "kszws1": "84",
      "lch": "5",
      "lh": "33",
      "listnav": "false",
      "localeKey": "zh_CN",
      "month": "5",
      "pageable": true,
      "queryModel": {
        "currentPage": 1,
        "currentResult": 0,
        "entityOrField": false,
        "limit": 15,
        "offset": 0,
        "pageNo": 0,
        "pageSize": 15,
        "showCount": 10,
        "sorts": [],
        "totalCount": 0,
        "totalPage": 0,
        "totalResult": 0
      },
      "rangeable": true,
      "row_id": "9",
      "sydx_id": "20",
      "sydxmc": "教务处",
      "totalResult": "72",
      "userModel": {
        "monitor": false,
        "roleCount": 0,
        "roleKeys": "",
        "roleValues": "",
        "status": 0,
        "usable": false
      },
      "xqh_id": "1",
      "xqmc": "五山校区",
      "year": "2021",
      "zws": "196"
    },
    {
      "cd_id": "330601",
      "cdbh": "330601",
      "cdjylx": "教学类,活动类,计算机机房类",
      "cdlb_id": "02",
      "cdlbmc": "多媒体教室",
      "cdmc": "330601",
      "cdxqxx_id": "B3CD4867DD2469BEE05399C226CA9A73",
      "date": "二○二一年五月二十九日",
      "dateDigit": "2021年5月29日",
      "dateDigitSeparator": "2021-5-29",
      "day": "29",
      "jgpxzd": "1",
      "jxlmc": "33",
      "kszws1": "35",
      "lch": "6",
      "lh": "33",
      "listnav": "false",
      "localeKey": "zh_CN",
      "month": "5",
      "pageable": true,
      "queryModel": {
        "currentPage": 1,
        "currentResult": 0,
        "entityOrField": false,
        "limit": 15,
        "offset": 0,
        "pageNo": 0,
        "pageSize": 15,
        "showCount": 10,
        "sorts": [],
        "totalCount": 0,
        "totalPage": 0,
        "totalResult": 0
      },
      "rangeable": true,
      "row_id": "10",
      "sydx_id": "20",
      "sydxmc": "教务处",
      "totalResult": "72",
      "userModel": {
        "monitor": false,
        "roleCount": 0,
        "roleKeys": "",
        "roleValues": "",
        "status": 0,
        "usable": false
      },
      "xqh_id": "1",
      "xqmc": "五山校区",
      "year": "2021",
      "zws": "95"
    },
    {
      "cd_id": "330602",
      "cdbh": "330602",
      "cdjylx": "教学类,活动类,计算机机房类",
      "cdlb_id": "02",
      "cdlbmc": "多媒体教室",
      "cdmc": "330602",
      "cdxqxx_id": "B3CD4867DD4369BEE05399C226CA9A73",
      "date": "二○二一年五月二十九日",
      "dateDigit": "2021年5月29日",
      "dateDigitSeparator": "2021-5-29",
      "day": "29",
      "jgpxzd": "1",
      "jxlmc": "33",
      "kszws1": "35",
      "lch": "6",
      "lh": "33",
      "listnav": "false",
      "localeKey": "zh_CN",
      "month": "5",
      "pageable": true,
      "queryModel": {
        "currentPage": 1,
        "currentResult": 0,
        "entityOrField": false,
        "limit": 15,
        "offset": 0,
        "pageNo": 0,
        "pageSize": 15,
        "showCount": 10,
        "sorts": [],
        "totalCount": 0,
        "totalPage": 0,
        "totalResult": 0
      },
      "rangeable": true,
      "row_id": "11",
      "sydx_id": "20",
      "sydxmc": "教务处",
      "totalResult": "72",
      "userModel": {
        "monitor": false,
        "roleCount": 0,
        "roleKeys": "",
        "roleValues": "",
        "status": 0,
        "usable": false
      },
      "xqh_id": "1",
      "xqmc": "五山校区",
      "year": "2021",
      "zws": "95"
    },
    {
      "cd_id": "330603",
      "cdbh": "330603",
      "cdjylx": "教学类,活动类,计算机机房类",
      "cdlb_id": "02",
      "cdlbmc": "多媒体教室",
      "cdmc": "330603",
      "cdxqxx_id": "B3CD4867DD2569BEE05399C226CA9A73",
      "date": "二○二一年五月二十九日",
      "dateDigit": "2021年5月29日",
      "dateDigitSeparator": "2021-5-29",
      "day": "29",
      "jgpxzd": "1",
      "jxlmc": "33",
      "kszws1": "78",
      "lch": "6",
      "lh": "33",
      "listnav": "false",
      "localeKey": "zh_CN",
      "month": "5",
      "pageable": true,
      "queryModel": {
        "currentPage": 1,
        "currentResult": 0,
        "entityOrField": false,
        "limit": 15,
        "offset": 0,
        "pageNo": 0,
        "pageSize": 15,
        "showCount": 10,
        "sorts": [],
        "totalCount": 0,
        "totalPage": 0,
        "totalResult": 0
      },
      "rangeable": true,
      "row_id": "12",
      "sydx_id": "20",
      "sydxmc": "教务处",
      "totalResult": "72",
      "userModel": {
        "monitor": false,
        "roleCount": 0,
        "roleKeys": "",
        "roleValues": "",
        "status": 0,
        "usable": false
      },
      "xqh_id": "1",
      "xqmc": "五山校区",
      "year": "2021",
      "zws": "182"
    },
    {
      "cd_id": "340104",
      "cdbh": "340104",
      "cdjylx": "教学类,活动类,计算机机房类",
      "cdlb_id": "02",
      "cdlbmc": "多媒体教室",
      "cdmc": "340104",
      "cdxqxx_id": "B3CD4867DD2869BEE05399C226CA9A73",
      "date": "二○二一年五月二十九日",
      "dateDigit": "2021年5月29日",
      "dateDigitSeparator": "2021-5-29",
      "day": "29",
      "jgpxzd": "1",
      "jxlmc": "34",
      "kszws1": "108",
      "lch": "1",
      "lh": "34",
      "listnav": "false",
      "localeKey": "zh_CN",
      "month": "5",
      "pageable": true,
      "queryModel": {
        "currentPage": 1,
        "currentResult": 0,
        "entityOrField": false,
        "limit": 15,
        "offset": 0,
        "pageNo": 0,
        "pageSize": 15,
        "showCount": 10,
        "sorts": [],
        "totalCount": 0,
        "totalPage": 0,
        "totalResult": 0
      },
      "rangeable": true,
      "row_id": "13",
      "sydx_id": "20",
      "sydxmc": "教务处",
      "totalResult": "72",
      "userModel": {
        "monitor": false,
        "roleCount": 0,
        "roleKeys": "",
        "roleValues": "",
        "status": 0,
        "usable": false
      },
      "xqh_id": "1",
      "xqmc": "五山校区",
      "year": "2021",
      "zws": "292"
    },
    {
      "cd_id": "340202",
      "cdbh": "340202",
      "cdjylx": "教学类,活动类,计算机机房类",
      "cdlb_id": "02",
      "cdlbmc": "多媒体教室",
      "cdmc": "340202",
      "cdxqxx_id": "B3CD4867DD2A69BEE05399C226CA9A73",
      "date": "二○二一年五月二十九日",
      "dateDigit": "2021年5月29日",
      "dateDigitSeparator": "2021-5-29",
      "day": "29",
      "jgpxzd": "1",
      "jxlmc": "34",
      "kszws1": "108",
      "lch": "2",
      "lh": "34",
      "listnav": "false",
      "localeKey": "zh_CN",
      "month": "5",
      "pageable": true,
      "queryModel": {
        "currentPage": 1,
        "currentResult": 0,
        "entityOrField": false,
        "limit": 15,
        "offset": 0,
        "pageNo": 0,
        "pageSize": 15,
        "showCount": 10,
        "sorts": [],
        "totalCount": 0,
        "totalPage": 0,
        "totalResult": 0
      },
      "rangeable": true,
      "row_id": "14",
      "sydx_id": "20",
      "sydxmc": "教务处",
      "totalResult": "72",
      "userModel": {
        "monitor": false,
        "roleCount": 0,
        "roleKeys": "",
        "roleValues": "",
        "status": 0,
        "usable": false
      },
      "xqh_id": "1",
      "xqmc": "五山校区",
      "year": "2021",
      "zws": "288"
    },
    {
      "cd_id": "340204",
      "cdbh": "340204",
      "cdjylx": "教学类,活动类,计算机机房类",
      "cdlb_id": "02",
      "cdlbmc": "多媒体教室",
      "cdmc": "340204",
      "cdxqxx_id": "B3CD4867DC2669BEE05399C226CA9A73",
      "date": "二○二一年五月二十九日",
      "dateDigit": "2021年5月29日",
      "dateDigitSeparator": "2021-5-29",
      "day": "29",
      "jgpxzd": "1",
      "jxlmc": "34",
      "kszws1": "108",
      "lch": "2",
      "lh": "34",
      "listnav": "false",
      "localeKey": "zh_CN",
      "month": "5",
      "pageable": true,
      "queryModel": {
        "currentPage": 1,
        "currentResult": 0,
        "entityOrField": false,
        "limit": 15,
        "offset": 0,
        "pageNo": 0,
        "pageSize": 15,
        "showCount": 10,
        "sorts": [],
        "totalCount": 0,
        "totalPage": 0,
        "totalResult": 0
      },
      "rangeable": true,
      "row_id": "15",
      "sydx_id": "20",
      "sydxmc": "教务处",
      "totalResult": "72",
      "userModel": {
        "monitor": false,
        "roleCount": 0,
        "roleKeys": "",
        "roleValues": "",
        "status": 0,
        "usable": false
      },
      "xqh_id": "1",
      "xqmc": "五山校区",
      "year": "2021",
      "zws": "288"
    }
  ],
  "limit": 15,
  "offset": 0,
  "pageNo": 0,
  "pageSize": 15,
  "showCount": 15,
  "sortName": "cdbh",
  "sortOrder": "asc",
  "sorts": [],
  "totalCount": 72,
  "totalPage": 5,
  "totalResult": 72
}